# This file may be used to create an environment using:
# $ conda create --name <env> --file <this file>
# platform: linux-64
astroid=1.6.3=py35_0
blas=1.0=mkl
bzip2=1.0.6=h9a117a8_4
ca-certificates=2018.12.5=0
cairo=1.14.12=h77bcde2_0
certifi=2018.8.24=py35_1
cycler=0.10.0=py35hc4d5149_0
dbus=1.13.0=h3a4f0e9_0
expat=2.2.5=hfc679d8_2
ffmpeg=4.0.2=ha6a6e2b_0
fontconfig=2.13.0=hd36ec8e_5
freetype=2.8.1=hfa320df_1
gettext=0.19.8.1=h5e8e0c9_1
giflib=5.1.4=h470a237_1
glib=2.53.6=h5d9569c_2
gmp=6.1.2=hfc679d8_0
gnutls=3.5.19=h2a4e5f8_1
graphite2=1.3.11=hf63cedd_1
gst-plugins-base=1.12.5=hde13a9d_0
gstreamer=1.12.4=hb53b477_0
harfbuzz=1.7.6=hc5b324e_0
hdf5=1.10.2=hc401514_3
icu=58.2=h9c2bf20_1
intel-openmp=2018.0.0=8
isort=4.3.4=py35_0
jasper=1.900.1=hd497a04_4
jpeg=9c=h470a237_1
kiwisolver=1.0.1=py35hf484d3e_0
lazy-object-proxy=1.3.1=py35h4c720c6_0
libedit=3.1=heed3624_0
libffi=3.2.1=hd88cf55_4
libgcc-ng=8.2.0=hdf63c60_1
libgfortran=3.0.0=1
libgfortran-ng=7.2.0=hdf63c60_3
libiconv=1.15=h470a237_3
libopus=1.2.1=hb9ed12e_0
libpng=1.6.34=hb9fc6fc_0
libprotobuf=3.4.1=h5b8497f_0
libstdcxx-ng=8.2.0=hdf63c60_1
libtiff=4.0.9=h28f6b97_0
libuuid=2.32.1=h470a237_2
libvpx=1.6.1=h888fd40_0
libwebp=0.5.2=7
libxcb=1.13=h1bed415_1
libxml2=2.9.8=hf84eae3_0
matplotlib=2.2.2=py35h0e671d2_1
mccabe=0.6.1=py35hd8c1f23_1
mkl=2018.0.3=1
mkl_fft=1.0.6=py35h7dd41cf_0
mkl_random=1.0.1=py35h629b387_0
ncurses=6.0=h9df7e31_2
nettle=3.3=0
numpy=1.15.2=py35h1d66e8a_0
numpy-base=1.15.2=py35h81de0dd_0
olefile=0.46=py35_0
openblas=0.2.20=8
opencv=3.4.1=py35h6fd60c2_1
openh264=1.7.0=0
openssl=1.0.2p=h14c3975_0
pcre=8.42=h439df22_0
pillow=5.1.0=py35h3deb7b8_0
pip=9.0.3=py35_0
pixman=0.34.0=hceecf20_3
pylint=1.8.4=py35_0
pyparsing=2.2.1=py35_0
pyqt=5.9.2=py35h751905a_0
python=3.5.5=hc3d631a_1
python-dateutil=2.7.3=py35_0
pytz=2018.5=py35_0
qt=5.9.4=h4e5bff0_0
readline=7.0=ha6073c6_4
scikit-learn=0.20.0=py35h4989274_1
scipy=1.1.0=py35hfa4b5c9_1
setuptools=39.0.1=py35_0
sip=4.19.8=py35hf484d3e_0
six=1.11.0=py35h423b573_1
sqlite=3.22.0=h1bed415_0
tk=8.6.7=hc745277_3
tornado=5.1.1=py35h7b6447c_0
wheel=0.31.0=py35_0
wrapt=1.10.11=py35hfdafd39_0
x264=1!152.20180717=h470a237_1
xorg-kbproto=1.0.7=h470a237_2
xorg-libice=1.0.9=h470a237_4
xorg-libsm=1.2.3=h8c8a85c_0
xorg-libx11=1.6.6=h470a237_0
xorg-libxext=1.3.3=h470a237_4
xorg-libxrender=0.9.10=h470a237_2
xorg-renderproto=0.11.1=h470a237_2
xorg-xextproto=7.3.0=h470a237_2
xorg-xproto=7.0.31=h470a237_7
xz=5.2.4=h470a237_1
zlib=1.2.11=ha838bed_2
